{
  "project_info": {
    "project_number": "1070885639941",
    "firebase_url": "https://campus-c7104.firebaseio.com",
    "project_id": "campus-c7104",
    "storage_bucket": "campus-c7104.appspot.com"
  },
  "client": [
    {
      "client_info": {
        "mobilesdk_app_id": "1:1070885639941:android:6d06c18f0ecc95bb6c096c",
        "android_client_info": {
          "package_name": "com.campus.app"
        }
      },
      "oauth_client": [
        {
          "client_id": "1070885639941-0om20efvcfon790nkfjdp6p7vvsejutg.apps.googleusercontent.com",
          "client_type": 1,
          "android_info": {
            "package_name": "com.campus.app",
            "certificate_hash": "c65d04bb37126bd8b1924a5b3862c1affacb2358"
          }
        },
        {
          "client_id": "1070885639941-vvu2l498sevgn2dc1hce2mjs0sp3bdqu.apps.googleusercontent.com",
          "client_type": 3
        }
      ],
      "api_key": [
        {
          "current_key": "AIzaSyDlxV6YqroBa-AqoeWKSTlEgEzjHVFyig8"
        }
      ],
      "services": {
        "appinvite_service": {
          "other_platform_oauth_client": [
            {
              "client_id": "1070885639941-vvu2l498sevgn2dc1hce2mjs0sp3bdqu.apps.googleusercontent.com",
              "client_type": 3
            }
          ]
        }
      }
    },
    {
      "client_info": {
        "mobilesdk_app_id": "1:1070885639941:android:c542f61cf5eab0556c096c",
        "android_client_info": {
          "package_name": "com.campus.studentapartment"
        }
      },
      "oauth_client": [
        {
          "client_id": "1070885639941-0aipuilf9o50pphehvlr8gsd54m59qoq.apps.googleusercontent.com",
          "client_type": 1,
          "android_info": {
            "package_name": "com.campus.studentapartment",
            "certificate_hash": "c65d04bb37126bd8b1924a5b3862c1affacb2358"
          }
        },
        {
          "client_id": "1070885639941-vvu2l498sevgn2dc1hce2mjs0sp3bdqu.apps.googleusercontent.com",
          "client_type": 3
        }
      ],
      "api_key": [
        {
          "current_key": "AIzaSyDlxV6YqroBa-AqoeWKSTlEgEzjHVFyig8"
        }
      ],
      "services": {
        "appinvite_service": {
          "other_platform_oauth_client": [
            {
              "client_id": "1070885639941-vvu2l498sevgn2dc1hce2mjs0sp3bdqu.apps.googleusercontent.com",
              "client_type": 3
            }
          ]
        }
      }
    }
  ],
  "configuration_version": "1"
}